<svg width="100" height="100" viewBox="0 0 100 100" fill="none" xmlns="http://www.w3.org/2000/svg">
<path d="M33.3334 20.8334V95.8334M66.6667 20.8334V95.8334M4.16675 45.8334H95.8334M4.16675 20.8334H95.8334M4.16675 70.8334H95.8334M4.16675 4.16675H95.8334V95.8334H4.16675V4.16675Z" stroke="black" stroke-width="8.33333"/>
</svg>
